<?xml version="1.0" encoding="utf-8"?>
<!-- Generator: Adobe Illustrator 23.0.4, SVG Export Plug-In . SVG Version: 6.00 Build 0)  -->
<svg version="1.1" id="Layer_1" xmlns="http://www.w3.org/2000/svg" xmlns:xlink="http://www.w3.org/1999/xlink" x="0px" y="0px"
	 viewBox="0 0 316.45 312.59" style="enable-background:new 0 0 316.45 312.59;" xml:space="preserve">
<style type="text/css">
	.st0{fill:#FFFFFF;}
	.st1{fill:#7C624A;}
	.st2{fill:#7D633C;}
</style>
<path class="st0" d="M156.11,306.55c-0.01,0-0.02,0-0.02,0c-2.18-0.01-4.22-1.3-5.44-3.46c-1.08-1.89-2.27-3.78-3.42-5.61
	c-0.99-1.57-2.01-3.19-2.97-4.83c-0.57-0.97-0.91-0.99-1.42-0.94c-0.43,0.04-0.9,0-1.31-0.13c-0.04,0.04-0.11,0.1-0.2,0.2
	c-1.07,1.16-2.16,2.31-3.24,3.46c-1.89,1.99-3.84,4.05-5.65,6.15c-1.6,1.85-3.87,2.67-6.07,2.2c-2.16-0.46-3.85-2.12-4.54-4.43
	c-0.23-0.77-0.52-1.53-0.84-2.33c-0.14-0.36-0.29-0.73-0.42-1.09l-0.9-2.4c-0.8-2.13-1.6-4.26-2.37-6.4
	c-0.05-0.15-0.09-0.19-0.09-0.19c-0.71-0.16-1.37-0.36-2.04-0.56l-0.09-0.03l-6.1,4.39c-1.67,1.21-3.35,2.42-5.03,3.62
	c-1.62,1.16-3.2,1.53-4.85,1.15c-2.55-0.6-4.19-2.32-4.62-4.85c-0.7-4.11-1.36-8.23-2.02-12.35l-0.02-0.13
	c-0.1-0.6-0.18-1.16-0.25-1.29c-0.09-0.09-0.6-0.37-1.05-0.61l-0.88-0.47l-2.26,1.03c-2.61,1.19-5.2,2.37-7.8,3.55l-0.77,0.36
	c-0.82,0.38-1.67,0.78-2.57,1.09c-1.53,0.52-3.15,0.4-4.55-0.34c-1.42-0.75-2.44-2.03-2.87-3.61c-0.19-0.69-0.27-1.48-0.24-2.42
	c0.03-0.88,0.05-1.75,0.08-2.63c0.08-3.01,0.17-6.12,0.41-9.19c0.1-1.36-0.19-2.01-1.21-2.67c-0.53-0.34-0.63-0.31-0.88-0.25
	c-2.56,0.63-5.13,1.24-7.7,1.84c-1.73,0.41-3.46,0.81-5.18,1.23c-2.29,0.55-4.46-0.01-5.94-1.54c-1.48-1.53-2.03-3.81-1.44-5.96
	c0.71-2.58,1.31-5.26,1.89-7.85c0.25-1.14,0.51-2.27,0.77-3.41c0.07-0.3,0.17-0.6,0.27-0.9c0.1-0.29,0.26-0.79,0.24-0.95
	c-0.03-0.14-0.38-0.53-0.59-0.76c-0.25-0.28-0.53-0.59-0.77-0.95c-0.04-0.05-0.06-0.08-0.07-0.08c0,0-0.05-0.01-0.17-0.01
	c-0.04,0-0.08,0-0.13,0c-3.27,0.17-6.49,0.29-9.78,0.41c-1.32,0.05-2.88,0.09-4.46,0.06c-2.45-0.04-4.65-1.77-5.36-4.19
	c-0.41-1.41-0.26-2.86,0.46-4.44c1.62-3.52,3.22-7.04,4.82-10.57c0.11-0.25,0.25-0.51,0.39-0.76c0.17-0.32,0.46-0.86,0.45-1.05
	c-0.01-0.2-0.29-0.66-0.49-0.99c-0.18-0.3-0.39-0.64-0.56-1.01c-2.25-0.36-4.41-0.7-6.58-1.05l-1.98-0.32
	c-1.83-0.29-3.72-0.59-5.58-0.95c-2.67-0.52-4.54-2.73-4.64-5.5c-0.05-1.37,0.38-2.67,1.31-3.95c2.28-3.13,4.54-6.29,6.79-9.44
	c0.16-0.23,0.35-0.45,0.53-0.68c0.25-0.31,0.63-0.77,0.66-0.97c0.02-0.16-0.16-0.64-0.27-0.93c-0.12-0.34-0.27-0.72-0.36-1.13
	c-0.01-0.07-0.06-0.12-0.24-0.18c-1.48-0.52-2.94-1.07-4.4-1.62l-3.21-1.2c-1.78-0.66-3.55-1.32-5.31-2.01
	c-3.13-1.24-4.62-4.43-3.46-7.41c0.36-0.93,1.01-1.85,1.94-2.74c1.63-1.56,3.28-3.09,4.94-4.63c1.31-1.22,2.63-2.44,3.93-3.67
	c0.31-0.3,0.57-0.53,0.78-0.71c0.08-0.07,0.15-0.13,0.22-0.19c-0.01-0.07-0.02-0.15-0.04-0.24c-0.04-0.26-0.08-0.58-0.13-0.98
	c-0.03-0.25-0.06-0.5-0.04-0.79c0.01-0.09,0-0.13,0-0.14c0,0-0.02-0.06-0.32-0.24c-1.5-0.91-2.99-1.84-4.48-2.78
	c-2.14-1.34-4.36-2.74-6.57-4.01c-2.13-1.23-3.4-3.25-3.4-5.41c0-2.15,1.26-4.16,3.38-5.37c1.83-1.05,3.67-2.21,5.44-3.32
	c1.52-0.96,3.09-1.94,4.67-2.87c1.35-0.79,1.45-1.13,1.37-1.78c-0.06-0.48,0.04-0.89,0.11-1.19c0,0,0-0.02,0.01-0.04
	c-0.02-0.03-0.06-0.06-0.11-0.11c-1.39-1.26-2.75-2.54-4.12-3.82l-2.68-2.5c-1.11-1.03-2.21-2.05-3.3-3.09
	c-1.69-1.61-2.3-3.6-1.77-5.76c0.49-1.97,1.78-3.41,3.75-4.14c3.74-1.4,7.48-2.8,11.22-4.21c0.25-0.1,0.52-0.18,0.8-0.26
	c0.33-0.1,0.88-0.27,1-0.39c0.08-0.11,0.19-0.53,0.26-0.81c0.09-0.36,0.19-0.77,0.36-1.17c0.04-0.1,0.04-0.14,0.04-0.14l0,0
	c0,0-0.02-0.09-0.2-0.33c-1.38-1.88-2.74-3.77-4.1-5.67c-1.27-1.77-2.54-3.53-3.82-5.29c-1.25-1.72-1.52-3.89-0.72-5.82
	c0.79-1.91,2.5-3.23,4.57-3.55c1.61-0.24,3.21-0.52,4.82-0.79c2.3-0.39,4.68-0.8,7.05-1.11c1.66-0.22,2.25-0.6,2.65-1.68
	c0.24-0.66,0.21-0.79,0.09-1.05c-2.08-4.45-3.86-8.37-5.45-11.98c-0.36-0.82-0.77-2.07-0.66-3.37c0.25-3.12,2.75-5.36,5.94-5.26
	c5.24,0.12,9.26,0.27,13.05,0.47c1.15,0.06,1.32-0.14,1.54-0.53c0.27-0.48,0.62-0.86,0.92-1.17c-0.23-0.9-0.43-1.76-0.62-2.62
	l-1.04-4.44c-0.51-2.14-1.01-4.28-1.51-6.42c-0.72-3.14,0.8-6.06,3.72-7.1c1.48-0.52,2.88-0.3,3.8-0.08
	c1.1,0.26,2.21,0.51,3.32,0.76c2.68,0.6,5.45,1.23,8.16,1.99c1.43,0.4,2.15,0.25,2.98-0.61c0.44-0.45,0.43-0.56,0.42-0.8
	c-0.1-2.29-0.17-4.57-0.24-6.86l-0.1-3.04c-0.02-0.45-0.04-0.9-0.06-1.35c-0.04-0.88-0.09-1.8-0.08-2.72
	c0.03-2.59,1.71-4.77,4.28-5.55c1.79-0.55,3.32-0.03,4.45,0.49l2.22,1.02c2.78,1.27,5.56,2.55,8.34,3.81
	c0.26,0.12,0.52,0.26,0.79,0.41c0.28,0.16,0.76,0.42,0.92,0.42c0.16-0.01,0.6-0.27,0.9-0.45c0.3-0.18,0.64-0.38,1.01-0.55
	c0.07-0.03,0.1-0.05,0.12-0.06c0-0.01,0.02-0.07,0.04-0.2c0.74-4.82,1.47-9.23,2.22-13.48c0.18-1.05,0.64-2.1,1.25-2.9
	c1.85-2.42,5.22-2.94,7.84-1.19c1.02,0.68,2.01,1.4,2.97,2.1c0.42,0.3,0.83,0.61,1.25,0.91l7.3,5.25c0.01,0,0.03-0.01,0.04-0.01
	c0.58-0.19,1.18-0.38,1.8-0.52c0.24-0.05,0.3-0.07,0.44-0.45c0.59-1.64,1.21-3.27,1.83-4.9c0.9-2.38,1.83-4.83,2.66-7.27
	c0.77-2.27,2.51-3.88,4.66-4.3c2.14-0.42,4.33,0.4,5.89,2.19c1.61,1.86,3.34,3.69,5.02,5.46c1.16,1.23,2.32,2.46,3.46,3.71
	c0.72,0.8,0.83,0.76,1.12,0.65c0.53-0.2,1.05-0.17,1.4-0.15c0.25,0.02,0.3,0.02,0.51-0.34c1.03-1.71,2.08-3.4,3.13-5.09
	c1.1-1.78,2.21-3.56,3.29-5.35c0.89-1.48,2.08-3.1,4.17-3.9c0.17-0.06,0.35-0.1,0.54-0.1h2c0.16,0,0.32,0.03,0.47,0.08
	c2.27,0.75,3.48,2.42,4.19,3.61c1.16,1.94,2.36,3.86,3.55,5.78c1.03,1.65,2.06,3.31,3.06,4.98c0.21,0.34,0.26,0.34,0.49,0.34
	c0.62-0.01,1.25,0.04,1.87,0.17c0.5-0.57,0.99-1.09,1.48-1.61l2.78-2.98c1.73-1.86,3.46-3.73,5.21-5.57
	c1.93-2.04,4.54-2.57,6.96-1.41c1.45,0.69,2.47,1.88,3.11,3.62c1.27,3.44,2.55,6.87,3.84,10.3c0.12,0.32,0.22,0.65,0.33,0.99
	c0.17,0.56,0.38,1.25,0.62,1.47c0.23,0.21,0.89,0.36,1.43,0.48c0.22,0.05,0.43,0.1,0.65,0.15l11.22-8.06c1.47-1.06,3-1.45,4.55-1.17
	c2.73,0.5,4.49,2.4,4.97,5.36c0.18,1.13,0.37,2.25,0.56,3.37c0.45,2.67,0.92,5.43,1.25,8.17c0.19,1.56,0.65,2.23,1.84,2.66
	c0.53,0.19,0.57,0.18,0.7,0.11c3.2-1.49,6.41-2.95,9.62-4.41l1.99-0.9c0.54-0.25,1.08-0.49,1.68-0.68c3.05-0.95,6.21,0.65,7.21,3.64
	c0.31,0.94,0.33,1.94,0.31,2.6c-0.07,2.8-0.16,5.6-0.25,8.4l-0.11,3.37c-0.01,0.29-0.04,0.59-0.08,0.89
	c-0.03,0.29-0.09,0.76-0.04,0.91c0.06,0.11,0.41,0.38,0.65,0.56c0.29,0.22,0.63,0.48,0.93,0.79c0.06,0.06,0.09,0.08,0.09,0.08
	c0,0,0.09,0.03,0.41-0.05c2.32-0.57,4.64-1.12,6.97-1.68l2.39-0.57c1.22-0.29,2.44-0.58,3.67-0.86c1.86-0.42,3.67-0.1,5.07,0.88
	c1.31,0.92,2.16,2.35,2.38,4.03c0.13,0.98-0.05,1.92-0.27,2.87l-0.52,2.29c-0.68,3.02-1.38,6.15-2.23,9.2
	c-0.32,1.17-0.19,1.77,0.58,2.58c0.5,0.52,0.69,0.59,1.17,0.57c3.91-0.19,7.88-0.32,11.71-0.44l1.45-0.05
	c0.81-0.03,1.47,0.04,2.06,0.21c1.6,0.46,2.93,1.56,3.66,3.02c0.73,1.48,0.79,3.16,0.17,4.74c-0.46,1.18-1,2.32-1.51,3.43
	c-0.21,0.44-0.41,0.88-0.61,1.32l-3.79,8.33l0.08,0.15c0.33,0.62,0.66,1.22,0.96,1.84c1.7,0.26,3.32,0.52,4.94,0.79l2.2,0.36
	c2.28,0.37,4.55,0.74,6.82,1.14c2.43,0.43,4.29,2.27,4.72,4.67c0.3,1.65-0.11,3.27-1.21,4.79c-0.75,1.03-1.48,2.07-2.22,3.1
	c-1.54,2.17-3.13,4.42-4.81,6.56c-0.91,1.16-1.04,1.88-0.56,2.99c0.26,0.6,0.39,0.66,0.67,0.76c2.66,0.96,5.32,1.96,7.97,2.95
	c1.41,0.53,2.81,1.05,4.22,1.57c1.16,0.43,2.81,1.23,3.74,3.15c1.16,2.42,0.63,5.03-1.43,6.97c-1.92,1.82-3.86,3.62-5.8,5.43
	l-3.08,2.87c-1.31,1.22-1.31,1.22-1.11,2.91l0.01,0.1c0.03,0.3,0.06,0.37,0.37,0.55c1.69,1.02,3.36,2.06,5.03,3.1
	c1.87,1.16,3.73,2.32,5.62,3.45c1.34,0.8,2.96,2,3.63,4.18c0.04,0.14,0.07,0.29,0.07,0.44v2c0,0.14-0.02,0.29-0.06,0.42
	c-0.65,2.2-2.28,3.4-3.62,4.21c-1.22,0.73-2.42,1.49-3.62,2.24c-1.88,1.19-3.83,2.42-5.82,3.52c-1.38,0.76-1.81,1.47-1.74,2.83
	c0.02,0.32,0.04,0.41,0.05,0.44c1.25,1.13,2.44,2.24,3.62,3.35l1.04,0.97c0.55,0.51,1.1,1.02,1.65,1.53
	c1.34,1.23,2.72,2.51,4.04,3.83c1.4,1.4,2.01,3.28,1.67,5.16c-0.34,1.91-1.59,3.5-3.43,4.34c-0.25,0.12-0.51,0.21-0.78,0.31
	l-0.26,0.09c-1.04,0.39-2.07,0.79-3.1,1.18c-2.48,0.96-5.04,1.94-7.63,2.77c-1.45,0.47-2.01,1.06-2.23,2.35
	c-0.09,0.52-0.06,0.56,0.04,0.7c1.87,2.56,3.72,5.13,5.57,7.71l1.87,2.6c0.3,0.41,0.61,0.83,0.89,1.3c0.97,1.66,1.1,3.6,0.35,5.32
	c-0.75,1.72-2.25,2.95-4.13,3.37c-0.79,0.18-1.58,0.3-2.34,0.42l-0.58,0.09c-3.74,0.61-7.48,1.21-11.23,1.8
	c-0.32,0.63-0.65,1.24-0.99,1.86l-0.07,0.14c0.08,0.19,0.16,0.38,0.25,0.57l1.46,3.22c1.34,2.95,2.68,5.9,4.03,8.84
	c0.91,1.98,0.76,4.11-0.42,5.84c-1.16,1.71-3.14,2.71-5.19,2.59c-2.75-0.15-5.56-0.22-8.28-0.29c-1.19-0.03-2.38-0.06-3.56-0.1
	c-0.32-0.01-0.65-0.05-0.99-0.09c-0.34-0.04-0.91-0.11-1.07-0.04c-0.13,0.07-0.43,0.48-0.61,0.72c-0.22,0.3-0.46,0.63-0.76,0.94
	c-0.03,0.03-0.04,0.05-0.06,0.06c0.01,0.01,0.02,0.06,0.04,0.12c0.18,0.55,0.3,1.08,0.4,1.6c0.04,0.2,0.08,0.4,0.13,0.6l0.8,3.43
	c0.64,2.72,1.28,5.43,1.88,8.16c0.63,2.88-1.02,5.76-3.84,6.7c-1.47,0.49-2.86,0.25-3.78,0.04l-1.65-0.39
	c-3.22-0.76-6.43-1.52-9.65-2.27c-0.96-0.23-1.73-0.4-1.99-0.33c-0.25,0.07-0.83,0.59-1.55,1.25c0,0,0,0-0.01,0.01
	c0.11,2.6,0.21,5.16,0.29,7.72l0.03,1c0.06,1.77,0.12,3.61,0.14,5.42c0.02,2.9-1.69,5.15-4.48,5.86c-1.71,0.44-3.19-0.09-4.15-0.53
	c-3.56-1.63-7.12-3.26-10.68-4.88c-0.25-0.11-0.5-0.25-0.75-0.38c-0.3-0.16-0.8-0.43-0.98-0.43c0,0,0,0,0,0
	c-0.13,0.02-0.49,0.24-0.73,0.39c-0.32,0.19-0.67,0.41-1.08,0.58c-0.15,0.06-0.17,0.07-0.21,0.34c-0.43,2.76-0.88,5.53-1.33,8.29
	c-0.08,0.51-0.16,1.02-0.24,1.53c-0.21,1.39-0.43,2.82-0.76,4.23c-0.44,1.85-1.66,3.33-3.36,4.04c-1.74,0.73-3.71,0.57-5.39-0.44
	c-0.31-0.19-0.61-0.4-0.91-0.62l-10.27-7.4c-0.18-0.13-0.36-0.26-0.54-0.38l-0.15,0.05c-0.64,0.19-1.24,0.38-1.85,0.53
	c-0.09,0.02-0.13,0.04-0.13,0.05c0,0-0.04,0.05-0.09,0.19c-0.79,2.21-1.62,4.41-2.45,6.61l-0.74,1.96c-0.16,0.43-0.32,0.87-0.48,1.3
	c-0.4,1.09-0.81,2.22-1.29,3.32c-0.79,1.82-2.31,3.08-4.18,3.47c-1.88,0.39-3.81-0.18-5.29-1.55c-0.26-0.24-0.5-0.5-0.74-0.77
	l-2.39-2.56c-1.97-2.11-4.02-4.29-5.99-6.47c-0.73-0.81-0.86-0.76-1.16-0.66c-0.48,0.16-0.94,0.14-1.24,0.12
	c-0.32-0.02-0.43-0.02-0.7,0.44c-0.93,1.55-1.9,3.09-2.86,4.63c-1.29,2.06-2.63,4.2-3.86,6.33
	C160.27,305.31,158.29,306.55,156.11,306.55z M169.23,288.78C169.23,288.78,169.22,288.78,169.23,288.78
	C169.22,288.78,169.23,288.78,169.23,288.78z M169.33,288.76L169.33,288.76L169.33,288.76z M24.75,113.83L24.75,113.83L24.75,113.83
	z M143.05,20.78C143.05,20.78,143.05,20.78,143.05,20.78C143.05,20.78,143.05,20.78,143.05,20.78z"/>
<path d="M156.11,306.37c-0.01,0-0.02,0-0.02,0c-2.18-0.01-4.22-1.3-5.44-3.46c-1.08-1.9-2.27-3.79-3.42-5.62
	c-0.99-1.57-2.01-3.19-2.96-4.83c-0.57-0.98-0.91-1-1.42-0.94c-0.44,0.04-0.9,0-1.31-0.13c-0.04,0.04-0.11,0.1-0.2,0.2
	c-1.07,1.16-2.16,2.31-3.25,3.46c-1.89,1.99-3.84,4.05-5.65,6.14c-1.6,1.85-3.87,2.67-6.07,2.2c-2.16-0.46-3.85-2.12-4.54-4.43
	c-0.23-0.77-0.52-1.52-0.84-2.33c-0.14-0.36-0.29-0.73-0.42-1.09l-0.89-2.37c-0.8-2.14-1.6-4.28-2.38-6.43
	c-0.05-0.15-0.09-0.19-0.09-0.19c-0.7-0.16-1.36-0.35-2.01-0.55l-0.12-0.03l-6,4.32c-1.71,1.23-3.42,2.47-5.13,3.69
	c-1.62,1.16-3.2,1.53-4.85,1.15c-2.55-0.6-4.19-2.32-4.62-4.85c-0.7-4.1-1.35-8.2-2.01-12.3l-0.03-0.18
	c-0.1-0.6-0.18-1.16-0.25-1.29c-0.09-0.09-0.6-0.37-1.05-0.61l-0.88-0.47l-2.33,1.06c-2.59,1.18-5.16,2.35-7.73,3.52
	c-0.26,0.12-0.52,0.24-0.77,0.36c-0.82,0.38-1.66,0.78-2.57,1.09c-1.53,0.52-3.15,0.4-4.55-0.34c-1.42-0.75-2.44-2.03-2.87-3.61
	c-0.19-0.69-0.27-1.48-0.24-2.42c0.03-0.88,0.05-1.75,0.08-2.63c0.08-3.01,0.17-6.12,0.41-9.19c0.1-1.36-0.19-2.01-1.21-2.67
	c-0.53-0.34-0.63-0.31-0.88-0.25c-2.57,0.64-5.16,1.24-7.74,1.85c-1.72,0.4-3.43,0.81-5.15,1.22c-2.29,0.55-4.46-0.01-5.94-1.53
	c-1.48-1.53-2.03-3.81-1.44-5.96c0.71-2.59,1.31-5.27,1.89-7.87c0.25-1.13,0.51-2.26,0.77-3.39c0.07-0.3,0.17-0.6,0.27-0.91
	c0.1-0.29,0.26-0.79,0.24-0.95c-0.03-0.14-0.38-0.53-0.59-0.76c-0.25-0.28-0.53-0.59-0.77-0.95c-0.04-0.05-0.06-0.08-0.07-0.08
	c0,0-0.05-0.01-0.16-0.01c-0.04,0-0.08,0-0.13,0c-3.32,0.18-6.65,0.3-9.78,0.41c-1.23,0.04-2.84,0.09-4.46,0.06
	c-2.45-0.04-4.65-1.77-5.36-4.19c-0.41-1.41-0.26-2.86,0.46-4.44c1.62-3.52,3.22-7.04,4.82-10.57c0.11-0.25,0.25-0.51,0.39-0.76
	c0.17-0.32,0.46-0.86,0.45-1.05c-0.01-0.2-0.29-0.66-0.49-0.99c-0.18-0.3-0.39-0.64-0.56-1.01c-2.25-0.36-4.42-0.7-6.58-1.05
	l-1.98-0.32c-1.83-0.29-3.72-0.59-5.58-0.95c-2.67-0.52-4.54-2.73-4.64-5.5c-0.05-1.37,0.38-2.66,1.31-3.95
	c2.28-3.13,4.54-6.29,6.79-9.44c0.16-0.23,0.35-0.45,0.53-0.68c0.25-0.31,0.63-0.77,0.66-0.97c0.02-0.16-0.16-0.64-0.27-0.93
	c-0.12-0.34-0.27-0.72-0.36-1.13c-0.01-0.07-0.06-0.12-0.24-0.18c-1.49-0.52-2.97-1.08-4.45-1.63l-3.16-1.18
	c-1.78-0.66-3.55-1.32-5.31-2.01c-3.13-1.24-4.62-4.42-3.46-7.41c0.36-0.93,1.01-1.85,1.94-2.74c1.63-1.56,3.28-3.1,4.94-4.63
	c1.31-1.22,2.63-2.44,3.93-3.67c0.32-0.3,0.57-0.53,0.78-0.71c0.08-0.07,0.15-0.13,0.22-0.19c-0.01-0.07-0.02-0.15-0.04-0.24
	c-0.04-0.26-0.08-0.58-0.13-0.98c-0.03-0.25-0.06-0.5-0.04-0.79c0.01-0.09,0-0.13,0-0.14c0,0,0,0,0,0c0,0-0.07-0.09-0.32-0.24
	c-1.5-0.91-2.99-1.84-4.48-2.78c-2.14-1.34-4.36-2.74-6.57-4.01c-2.13-1.23-3.4-3.25-3.4-5.41c0-2.15,1.26-4.16,3.38-5.37
	c1.83-1.05,3.67-2.2,5.44-3.32c1.52-0.96,3.09-1.94,4.68-2.88c1.35-0.79,1.45-1.13,1.37-1.78c-0.06-0.48,0.04-0.89,0.11-1.18
	c0,0,0-0.02,0.01-0.04c-0.02-0.03-0.06-0.06-0.11-0.11c-1.39-1.26-2.77-2.55-4.14-3.83l-2.63-2.45c-1.11-1.03-2.23-2.07-3.33-3.12
	c-1.69-1.61-2.3-3.6-1.77-5.75c0.49-1.97,1.78-3.41,3.75-4.14l0.76-0.29c3.49-1.31,6.97-2.61,10.46-3.93
	c0.25-0.1,0.53-0.18,0.8-0.26c0.33-0.1,0.88-0.27,1-0.39c0.08-0.11,0.19-0.53,0.26-0.81c0.09-0.36,0.19-0.76,0.36-1.17
	c0.04-0.09,0.04-0.14,0.04-0.14l0,0c0,0-0.02-0.09-0.2-0.33c-1.37-1.88-2.73-3.76-4.09-5.65c-1.27-1.77-2.54-3.54-3.83-5.3
	c-1.25-1.72-1.52-3.89-0.72-5.82c0.79-1.91,2.5-3.23,4.57-3.55c1.61-0.24,3.21-0.52,4.82-0.79c2.3-0.39,4.69-0.8,7.05-1.11
	c1.66-0.22,2.25-0.6,2.64-1.68c0.24-0.66,0.21-0.79,0.09-1.05c-2.08-4.46-3.87-8.38-5.45-11.98c-0.36-0.82-0.77-2.07-0.66-3.37
	c0.25-3.12,2.75-5.32,5.94-5.26c5.22,0.12,9.25,0.27,13.05,0.47c1.15,0.06,1.32-0.14,1.54-0.53c0.27-0.47,0.62-0.86,0.92-1.17
	c-0.23-0.9-0.43-1.76-0.62-2.62l-1.04-4.44c-0.51-2.14-1.01-4.28-1.51-6.42c-0.74-3.19,0.76-6.04,3.72-7.09
	c1.48-0.52,2.88-0.3,3.8-0.08c1.1,0.26,2.21,0.51,3.32,0.76c2.68,0.6,5.46,1.23,8.16,1.99c1.45,0.41,2.14,0.26,2.99-0.61
	c0.43-0.45,0.43-0.56,0.42-0.8c-0.1-2.28-0.17-4.57-0.24-6.86l-0.1-3.04c-0.02-0.45-0.04-0.9-0.06-1.35
	c-0.04-0.88-0.09-1.8-0.08-2.72c0.03-2.58,1.71-4.76,4.28-5.55c1.79-0.55,3.32-0.03,4.45,0.49l2.03,0.93c2.84,1.3,5.69,2.6,8.54,3.9
	c0.26,0.12,0.53,0.26,0.79,0.41c0.28,0.16,0.76,0.42,0.92,0.42c0.16-0.01,0.6-0.27,0.9-0.45c0.3-0.18,0.64-0.39,1.01-0.55
	c0.07-0.03,0.1-0.05,0.12-0.06c0-0.01,0.02-0.07,0.04-0.2c0.74-4.81,1.47-9.22,2.22-13.48c0.19-1.05,0.64-2.11,1.25-2.9
	c1.85-2.43,5.22-2.94,7.85-1.19c1.02,0.68,2.02,1.41,2.98,2.11c0.41,0.3,0.82,0.6,1.24,0.9l7.3,5.25c0.02,0,0.03-0.01,0.04-0.01
	c0.58-0.18,1.17-0.38,1.8-0.52c0.24-0.05,0.3-0.07,0.44-0.45c0.59-1.64,1.21-3.27,1.83-4.91c0.9-2.38,1.83-4.83,2.66-7.26
	c0.77-2.27,2.51-3.88,4.66-4.3c2.13-0.42,4.33,0.4,5.89,2.19c1.61,1.86,3.34,3.69,5.02,5.46c1.16,1.23,2.32,2.46,3.46,3.71
	c0.72,0.8,0.83,0.76,1.12,0.65c0.53-0.2,1.05-0.17,1.4-0.15c0.26,0.01,0.3,0.02,0.51-0.34c1.03-1.71,2.08-3.4,3.13-5.09
	c1.1-1.78,2.21-3.56,3.29-5.35c0.89-1.48,2.08-3.1,4.17-3.9c0.17-0.07,0.35-0.1,0.54-0.1h2c0.16,0,0.32,0.03,0.47,0.08
	c2.27,0.75,3.48,2.42,4.19,3.61c1.16,1.94,2.35,3.86,3.54,5.78c1.03,1.66,2.06,3.31,3.07,4.98c0.21,0.34,0.26,0.35,0.49,0.34
	c0.62-0.01,1.24,0.04,1.87,0.17c0.5-0.57,0.99-1.08,1.48-1.6l2.8-3c1.73-1.86,3.45-3.72,5.2-5.56c1.93-2.04,4.54-2.57,6.96-1.41
	c1.45,0.69,2.47,1.88,3.11,3.62c1.27,3.44,2.55,6.87,3.84,10.3c0.12,0.32,0.22,0.65,0.33,0.99c0.17,0.56,0.38,1.25,0.62,1.47
	c0.23,0.21,0.9,0.36,1.43,0.48c0.22,0.05,0.43,0.1,0.65,0.15c0.48-0.34,0.97-0.69,1.47-1.05l9.75-7.01c1.47-1.06,3-1.45,4.55-1.17
	c2.73,0.5,4.5,2.4,4.97,5.36c0.18,1.13,0.37,2.26,0.56,3.39c0.45,2.66,0.92,5.42,1.24,8.16c0.19,1.56,0.65,2.23,1.84,2.66
	c0.54,0.19,0.57,0.18,0.7,0.11c3.23-1.5,6.47-2.98,9.71-4.45l1.89-0.86c0.54-0.25,1.08-0.49,1.68-0.68c3.05-0.95,6.21,0.65,7.2,3.64
	c0.24,0.72,0.34,1.55,0.31,2.6c-0.07,2.79-0.16,5.57-0.24,8.36l-0.11,3.41c-0.01,0.29-0.04,0.59-0.08,0.89
	c-0.03,0.29-0.09,0.76-0.04,0.91c0.06,0.11,0.42,0.38,0.65,0.56c0.29,0.22,0.63,0.48,0.93,0.79c0.05,0.05,0.08,0.07,0.09,0.08
	c0,0,0.09,0.02,0.41-0.05c2.26-0.56,4.54-1.1,6.8-1.64l2.7-0.64c1.17-0.28,2.35-0.56,3.52-0.82c1.87-0.42,3.67-0.1,5.07,0.88
	c1.31,0.92,2.16,2.35,2.38,4.03c0.13,0.98-0.05,1.92-0.27,2.87l-0.51,2.28c-0.68,3.03-1.38,6.16-2.23,9.21
	c-0.32,1.17-0.19,1.77,0.58,2.58c0.5,0.52,0.71,0.59,1.17,0.57c3.91-0.19,7.87-0.32,11.71-0.44l1.45-0.05
	c0.82-0.03,1.47,0.04,2.07,0.21c1.6,0.46,2.93,1.56,3.65,3.02c0.73,1.48,0.79,3.16,0.17,4.73c-0.46,1.17-0.99,2.31-1.51,3.41
	c-0.21,0.45-0.42,0.89-0.62,1.34l-3.79,8.33l0.06,0.12c0.34,0.63,0.67,1.24,0.98,1.87c1.7,0.27,3.32,0.52,4.94,0.79l2.08,0.34
	c2.31,0.38,4.63,0.75,6.94,1.16c2.43,0.43,4.29,2.27,4.72,4.67c0.3,1.66-0.11,3.27-1.21,4.79c-0.74,1.02-1.47,2.05-2.2,3.08
	c-1.54,2.18-3.14,4.43-4.82,6.58c-0.91,1.16-1.04,1.88-0.56,2.99c0.26,0.6,0.39,0.66,0.67,0.76c2.68,0.97,5.35,1.97,8.01,2.97
	c1.39,0.52,2.78,1.04,4.18,1.56c1.16,0.43,2.81,1.23,3.74,3.16c1.16,2.42,0.63,5.02-1.43,6.97c-1.94,1.84-3.9,3.66-5.86,5.48
	l-3.02,2.82c-1.3,1.22-1.3,1.22-1.11,2.91l0.01,0.1c0.03,0.3,0.06,0.37,0.37,0.55c1.69,1.02,3.36,2.06,5.04,3.1
	c1.87,1.16,3.73,2.32,5.61,3.45c1.34,0.8,2.96,2,3.63,4.18c0.04,0.14,0.07,0.29,0.07,0.44v2c0,0.14-0.02,0.29-0.06,0.42
	c-0.64,2.2-2.28,3.4-3.63,4.21c-1.22,0.73-2.41,1.48-3.61,2.24c-1.88,1.19-3.83,2.42-5.83,3.52c-1.38,0.76-1.81,1.47-1.74,2.83
	c0.02,0.32,0.04,0.41,0.05,0.44c1.26,1.14,2.46,2.26,3.65,3.38l1.01,0.95c0.55,0.51,1.1,1.02,1.65,1.53
	c1.33,1.23,2.71,2.51,4.03,3.82c1.4,1.4,2.01,3.28,1.67,5.16c-0.34,1.91-1.59,3.5-3.43,4.34c-0.25,0.12-0.51,0.21-0.77,0.3
	l-0.26,0.09c-1.04,0.39-2.07,0.79-3.1,1.18c-2.48,0.96-5.04,1.94-7.63,2.77c-1.45,0.47-2.01,1.06-2.23,2.35
	c-0.09,0.52-0.06,0.56,0.04,0.7c1.92,2.62,3.81,5.26,5.71,7.9l1.74,2.42c0.3,0.41,0.61,0.82,0.88,1.3c0.97,1.66,1.1,3.6,0.35,5.32
	c-0.75,1.72-2.25,2.95-4.13,3.37c-0.79,0.18-1.58,0.3-2.35,0.42l-0.57,0.09c-3.74,0.61-7.48,1.21-11.23,1.8
	c-0.33,0.63-0.66,1.25-1,1.88l-0.06,0.12c0.08,0.19,0.17,0.38,0.25,0.57l1.51,3.33c1.32,2.91,2.64,5.82,3.98,8.72
	c0.91,1.97,0.76,4.1-0.42,5.84c-1.16,1.71-3.16,2.7-5.19,2.59c-2.75-0.15-5.55-0.22-8.27-0.29c-1.19-0.03-2.39-0.06-3.58-0.1
	c-0.32-0.01-0.65-0.05-0.99-0.09c-0.34-0.04-0.91-0.11-1.07-0.04c-0.13,0.07-0.43,0.48-0.61,0.72c-0.22,0.29-0.46,0.63-0.76,0.93
	c-0.03,0.03-0.05,0.05-0.06,0.07c0.01,0.01,0.02,0.06,0.04,0.12c0.18,0.55,0.3,1.09,0.41,1.61c0.04,0.2,0.08,0.4,0.13,0.59
	l0.79,3.38c0.64,2.73,1.29,5.46,1.89,8.2c0.63,2.88-1.02,5.76-3.84,6.7c-1.47,0.49-2.86,0.25-3.78,0.04l-1.91-0.45
	c-3.13-0.74-6.26-1.48-9.39-2.21c-0.96-0.22-1.73-0.41-1.99-0.33c-0.25,0.07-0.83,0.59-1.55,1.25c0,0,0,0-0.01,0.01
	c0.11,2.6,0.21,5.16,0.29,7.72l0.04,1.02c0.06,1.77,0.12,3.59,0.14,5.4c0.02,2.9-1.69,5.15-4.49,5.86
	c-1.71,0.44-3.19-0.09-4.15-0.54l-0.42-0.19c-3.42-1.57-6.84-3.13-10.27-4.69c-0.25-0.11-0.5-0.25-0.75-0.38
	c-0.3-0.16-0.8-0.43-0.98-0.43l0,0c-0.13,0.02-0.49,0.24-0.73,0.39c-0.32,0.19-0.67,0.42-1.08,0.58c-0.15,0.06-0.17,0.07-0.21,0.34
	c-0.43,2.76-0.88,5.53-1.33,8.29c-0.08,0.51-0.16,1.02-0.24,1.53c-0.21,1.39-0.43,2.82-0.76,4.24c-0.43,1.85-1.66,3.33-3.36,4.04
	c-1.74,0.73-3.71,0.57-5.39-0.44c-0.32-0.19-0.63-0.41-0.93-0.63l-10.25-7.39c-0.18-0.13-0.36-0.26-0.54-0.38l-0.17,0.05
	c-0.63,0.19-1.23,0.37-1.84,0.52c-0.09,0.02-0.12,0.04-0.13,0.05c0,0-0.04,0.05-0.09,0.19c-0.79,2.19-1.61,4.37-2.43,6.55
	l-0.76,2.03c-0.16,0.44-0.32,0.87-0.48,1.31c-0.4,1.09-0.81,2.22-1.29,3.32c-0.79,1.82-2.31,3.08-4.18,3.47
	c-1.88,0.39-3.81-0.17-5.29-1.55c-0.26-0.24-0.5-0.51-0.75-0.77l-2.38-2.54c-1.98-2.11-4.03-4.3-6.01-6.49
	c-0.73-0.81-0.86-0.76-1.16-0.66c-0.48,0.16-0.93,0.14-1.23,0.12c-0.32-0.02-0.44-0.02-0.71,0.44c-0.93,1.55-1.9,3.09-2.86,4.63
	c-1.29,2.07-2.63,4.2-3.86,6.33C160.27,305.13,158.29,306.37,156.11,306.37z M143.05,288.52c2.38,0,3.44,1.81,3.8,2.44
	c0.93,1.59,1.94,3.2,2.91,4.74c1.17,1.86,2.38,3.78,3.49,5.73c0.7,1.23,1.74,1.94,2.85,1.94c0,0,0.01,0,0.01,0
	c1.09,0,2.11-0.7,2.82-1.91c1.26-2.18,2.61-4.33,3.92-6.42c0.95-1.52,1.91-3.05,2.83-4.58c0.8-1.33,1.93-1.96,3.36-1.89
	c0.12,0.01,0.2,0.02,0.26,0.01c2.25-0.73,3.62,0.78,4.28,1.51c1.96,2.17,4,4.35,5.97,6.45l2.4,2.57c0.19,0.21,0.38,0.41,0.58,0.61
	c0.75,0.7,1.71,1,2.63,0.81c0.89-0.19,1.64-0.82,2.03-1.73c0.44-1.01,0.82-2.05,1.22-3.14c0.16-0.45,0.33-0.89,0.49-1.34l0.76-2.03
	c0.82-2.16,1.63-4.33,2.41-6.5c0.41-1.15,1.17-1.85,2.31-2.14c0.56-0.14,1.11-0.31,1.7-0.48l0.88-0.26c0.43-0.13,0.9-0.05,1.28,0.21
	l0.31,0.21c0.28,0.19,0.57,0.39,0.87,0.6l10.25,7.39c0.24,0.17,0.47,0.34,0.72,0.5c0.85,0.51,1.83,0.61,2.68,0.25
	c0.82-0.34,1.39-1.04,1.6-1.96c0.3-1.3,0.51-2.61,0.72-4c0.08-0.52,0.16-1.04,0.24-1.56c0.45-2.75,0.9-5.5,1.33-8.26
	c0.2-1.28,0.87-2.17,2.01-2.65c0.19-0.08,0.42-0.22,0.67-0.37c0.58-0.36,1.31-0.81,2.2-0.84c0.97-0.03,1.82,0.42,2.5,0.79
	c0.19,0.1,0.38,0.21,0.57,0.29c3.43,1.56,6.85,3.12,10.27,4.69l0.42,0.19c0.89,0.41,1.54,0.51,2.16,0.36
	c1.45-0.37,2.24-1.41,2.23-2.93c-0.01-1.77-0.08-3.57-0.14-5.32l-0.04-1.02c-0.09-2.58-0.18-5.16-0.29-7.74
	c-0.04-0.91,0.27-1.65,0.94-2.26c2.5-2.29,3.03-2.43,6.29-1.67c3.14,0.73,6.27,1.47,9.4,2.21l1.91,0.45
	c0.91,0.22,1.57,0.23,2.14,0.04c1.36-0.45,2.16-1.83,1.86-3.21c-0.6-2.73-1.24-5.44-1.88-8.16l-0.79-3.39
	c-0.05-0.22-0.1-0.44-0.14-0.66c-0.1-0.46-0.19-0.89-0.32-1.28c-0.41-1.22-0.17-2.31,0.71-3.22c0.15-0.16,0.32-0.38,0.49-0.62
	c0.43-0.59,0.97-1.32,1.82-1.69c0.9-0.39,1.86-0.28,2.63-0.19c0.25,0.03,0.49,0.06,0.73,0.07c1.19,0.04,2.38,0.07,3.56,0.1
	c2.74,0.07,5.57,0.14,8.36,0.29c0.99,0.06,1.97-0.44,2.55-1.28c0.34-0.5,0.81-1.54,0.18-2.9c-1.34-2.91-2.67-5.82-3.99-8.74
	l-1.51-3.33c-0.13-0.28-0.25-0.57-0.38-0.86l-0.18-0.43c-0.18-0.42-0.16-0.9,0.05-1.3l0.42-0.78c0.31-0.58,0.62-1.15,0.9-1.73
	c0.45-0.94,1.21-1.51,2.26-1.67c3.74-0.6,7.48-1.2,11.22-1.8l0.58-0.09c0.75-0.12,1.46-0.23,2.16-0.39
	c0.93-0.21,1.67-0.81,2.03-1.64s0.29-1.78-0.19-2.61c-0.2-0.34-0.45-0.68-0.71-1.04l-1.76-2.44c-1.89-2.63-3.78-5.26-5.69-7.88
	c-0.77-1.06-0.74-2.05-0.58-2.97c0.41-2.4,1.77-3.9,4.27-4.7c2.5-0.81,5.03-1.78,7.46-2.72c1.04-0.4,2.08-0.8,3.13-1.2l0.3-0.11
	c0.18-0.06,0.36-0.13,0.53-0.21c0.93-0.43,1.57-1.21,1.73-2.15c0.16-0.9-0.14-1.81-0.84-2.51c-1.27-1.27-2.63-2.53-3.94-3.74
	c-0.56-0.51-1.12-1.03-1.67-1.55l-1.01-0.95c-1.18-1.1-2.35-2.21-3.55-3.29c-0.92-0.83-1.04-1.75-1.09-2.55
	c-0.14-2.53,0.9-4.31,3.29-5.62c1.92-1.06,3.83-2.26,5.67-3.42c1.22-0.77,2.44-1.54,3.68-2.28c1.27-0.76,1.91-1.42,2.23-2.29v-1.52
	c-0.33-0.87-0.99-1.55-2.24-2.3l0,0c-1.9-1.14-3.77-2.31-5.65-3.47c-1.66-1.03-3.33-2.07-5.01-3.08c-1.08-0.65-1.65-1.54-1.79-2.78
	l-0.01-0.1c-0.33-2.89-0.14-3.4,2.04-5.44l3.02-2.82c1.95-1.82,3.9-3.64,5.84-5.47c0.77-0.73,1.54-1.93,0.78-3.49
	c-0.36-0.74-0.98-1.23-2.08-1.64c-1.4-0.52-2.79-1.04-4.18-1.56c-2.66-1-5.31-1.99-7.98-2.96c-1.42-0.51-2.01-1.49-2.4-2.38
	c-1.2-2.75-0.12-4.68,0.95-6.04c1.64-2.09,3.21-4.31,4.73-6.46c0.74-1.04,1.47-2.08,2.22-3.11c0.62-0.86,0.84-1.65,0.69-2.49
	c-0.21-1.18-1.1-2.04-2.3-2.26c-2.29-0.41-4.59-0.78-6.89-1.15l-2.08-0.34c-1.64-0.27-3.28-0.53-4.92-0.78
	c-1.02-0.16-1.76-0.68-2.19-1.56c-0.3-0.62-0.63-1.23-0.97-1.84l-0.42-0.79c-0.22-0.41-0.23-0.9-0.04-1.33l4.1-9
	c0.21-0.46,0.42-0.91,0.63-1.36c0.5-1.06,1.01-2.16,1.43-3.24c0.31-0.77,0.28-1.59-0.07-2.3c-0.35-0.71-0.99-1.23-1.79-1.46
	c-0.28-0.08-0.65-0.11-1.15-0.09l-1.45,0.05c-3.82,0.12-7.78,0.24-11.66,0.43c-1.72,0.1-2.74-0.71-3.49-1.5
	c-1.5-1.58-1.91-3.26-1.3-5.45c0.83-2.98,1.52-6.08,2.19-9.07l0.52-2.29c0.15-0.67,0.29-1.32,0.22-1.81
	c-0.11-0.84-0.5-1.52-1.12-1.96c-0.71-0.5-1.67-0.64-2.7-0.41c-1.16,0.26-2.32,0.54-3.48,0.81l-2.7,0.64
	c-2.26,0.54-4.52,1.07-6.78,1.63c-0.51,0.13-2.05,0.51-3.37-0.84c-0.15-0.15-0.36-0.31-0.59-0.49c-0.53-0.4-1.2-0.91-1.57-1.7
	c-0.4-0.86-0.29-1.77-0.21-2.5c0.03-0.22,0.05-0.43,0.06-0.64l0.11-3.41c0.09-2.78,0.18-5.56,0.24-8.34
	c0.02-0.69-0.03-1.21-0.16-1.58c-0.47-1.42-2-2.18-3.46-1.72c-0.42,0.13-0.85,0.33-1.31,0.53l-1.91,0.87
	c-3.23,1.47-6.47,2.94-9.68,4.44c-1.29,0.6-2.31,0.23-2.99-0.01c-2.99-1.08-3.6-3.44-3.8-5.12c-0.32-2.67-0.78-5.39-1.22-8.02
	c-0.19-1.14-0.38-2.27-0.57-3.41c-0.28-1.72-1.06-2.61-2.54-2.88c-0.74-0.13-1.44,0.07-2.26,0.66l-9.75,7.01
	c-0.53,0.38-1.06,0.76-1.57,1.12l-0.43,0.31c-0.28,0.2-0.62,0.3-0.97,0.27c-0.19,0-0.41-0.01-0.67-0.09
	c-0.28-0.09-0.58-0.15-0.89-0.22c-0.93-0.21-1.99-0.45-2.81-1.2c-0.84-0.78-1.17-1.85-1.46-2.8c-0.08-0.28-0.17-0.55-0.26-0.81
	c-1.29-3.44-2.58-6.88-3.85-10.32c-0.37-1-0.86-1.61-1.59-1.95c-1.27-0.6-2.44-0.35-3.49,0.77c-1.74,1.84-3.46,3.69-5.18,5.54
	l-2.82,3.02c-0.49,0.51-0.97,1.03-1.43,1.56c-0.73,0.84-1.65,1.15-2.74,0.93c-0.44-0.09-0.88-0.13-1.3-0.12
	c-1.35,0-2.37-0.56-3.11-1.79c-1-1.66-2.03-3.31-3.05-4.95c-1.2-1.93-2.4-3.87-3.57-5.82c-0.71-1.19-1.43-1.87-2.35-2.23h-1.44
	c-1.03,0.48-1.73,1.37-2.44,2.54c-1.09,1.81-2.2,3.6-3.31,5.39c-1.04,1.68-2.09,3.36-3.11,5.06c-0.76,1.26-1.82,1.87-3.16,1.79
	c-0.16-0.01-0.25-0.02-0.33-0.02c-2.26,0.8-3.65-0.73-4.32-1.47c-1.12-1.24-2.27-2.45-3.42-3.66c-1.7-1.79-3.45-3.65-5.1-5.55
	c-0.85-0.98-1.96-1.42-3.04-1.21c-1.1,0.21-1.97,1.06-2.4,2.32c-0.84,2.48-1.78,4.96-2.69,7.36c-0.61,1.62-1.23,3.23-1.82,4.86
	c-0.47,1.3-1.32,2.07-2.61,2.36c-0.49,0.11-1,0.27-1.54,0.45c-0.26,0.08-0.52,0.17-0.79,0.25c-0.45,0.13-0.93,0.05-1.31-0.22
	l-7.91-5.69c-0.42-0.3-0.84-0.61-1.26-0.91c-0.94-0.69-1.9-1.39-2.87-2.04c-1.33-0.88-2.9-0.68-3.8,0.51
	c-0.32,0.42-0.58,1.03-0.68,1.61c-0.75,4.23-1.47,8.62-2.21,13.41c-0.19,1.22-0.81,2.05-1.9,2.54c-0.23,0.1-0.46,0.25-0.69,0.38
	c-0.62,0.37-1.38,0.83-2.31,0.87c-0.97,0.05-1.83-0.42-2.51-0.79c-0.2-0.11-0.39-0.22-0.59-0.31c-2.85-1.3-5.69-2.6-8.54-3.9
	l-2.03-0.93c-0.99-0.45-1.66-0.55-2.32-0.35c-1.34,0.41-2.14,1.42-2.16,2.72c-0.01,0.83,0.03,1.66,0.08,2.54
	c0.02,0.47,0.05,0.93,0.06,1.4l0.1,3.05c0.07,2.27,0.14,4.55,0.24,6.82c0.06,1.44-0.57,2.3-1.25,3.01
	c-2.08,2.16-4.27,1.89-5.96,1.42c-2.63-0.74-5.37-1.35-8.01-1.95c-1.11-0.25-2.23-0.5-3.34-0.76c-0.89-0.21-1.55-0.21-2.11-0.01
	c-1.5,0.53-2.19,1.91-1.8,3.59c0.49,2.13,1,4.27,1.5,6.4l1.05,4.46c0.2,0.87,0.39,1.74,0.62,2.59c0.27,1.03,0.05,1.93-0.67,2.67
	c-0.23,0.24-0.46,0.47-0.56,0.65c-1.25,2.22-3.4,2.1-4.32,2.06c-3.77-0.2-7.77-0.34-12.96-0.46c-1.6-0.05-2.76,0.97-2.88,2.5
	c-0.04,0.52,0.11,1.22,0.42,1.92c1.57,3.58,3.35,7.48,5.42,11.92c0.64,1.36,0.34,2.44,0.01,3.34c-1,2.75-3.12,3.38-5.07,3.63
	c-2.31,0.3-4.66,0.71-6.94,1.09c-1.62,0.28-3.24,0.55-4.87,0.8c-1.04,0.16-1.86,0.79-2.25,1.73c-0.4,0.96-0.26,2.04,0.37,2.9
	c1.29,1.77,2.57,3.54,3.84,5.32c1.35,1.88,2.7,3.76,4.07,5.63c0.53,0.72,1.15,1.85,0.5,3.4c-0.08,0.19-0.15,0.46-0.21,0.73
	c-0.16,0.66-0.37,1.49-0.98,2.14c-0.67,0.71-1.58,0.99-2.32,1.21c-0.21,0.06-0.42,0.13-0.61,0.2c-3.49,1.32-6.97,2.62-10.46,3.93
	l-0.76,0.29c-1.04,0.39-1.64,1.04-1.89,2.05c-0.27,1.11,0.01,2,0.92,2.86c1.09,1.04,2.2,2.07,3.3,3.09l2.64,2.46
	c1.36,1.28,2.73,2.55,4.11,3.8c0.94,0.85,1.29,1.85,1.03,2.97c-0.04,0.16-0.06,0.24-0.07,0.31c0.34,2.77-1.8,4.03-2.83,4.63
	c-1.55,0.91-3.1,1.89-4.6,2.83c-1.8,1.13-3.66,2.3-5.55,3.38c-1.19,0.68-1.87,1.69-1.87,2.77c0,1.09,0.69,2.11,1.89,2.8
	c2.27,1.3,4.51,2.71,6.67,4.07c1.47,0.93,2.95,1.85,4.44,2.75c0.48,0.29,1.93,1.17,1.76,3.19c0,0.01,0.01,0.06,0.02,0.11
	c0.05,0.46,0.1,0.75,0.13,0.99c0.23,1.55,0.04,2.04-1.15,3.1c-0.19,0.17-0.42,0.38-0.71,0.65c-1.31,1.24-2.63,2.47-3.95,3.69
	c-1.64,1.53-3.29,3.05-4.91,4.6c-0.6,0.57-1.02,1.15-1.22,1.66c-0.55,1.43,0.19,2.92,1.76,3.54c1.74,0.69,3.5,1.34,5.25,1.99
	l3.17,1.18c1.46,0.55,2.91,1.1,4.38,1.61c1.2,0.42,1.91,1.19,2.18,2.35c0.06,0.25,0.15,0.5,0.25,0.75c0.25,0.68,0.56,1.53,0.41,2.45
	c-0.16,0.99-0.79,1.76-1.3,2.39c-0.14,0.18-0.29,0.35-0.41,0.53c-2.26,3.16-4.52,6.31-6.8,9.45c-0.54,0.74-0.77,1.38-0.74,2.08
	c0.05,1.35,0.94,2.42,2.21,2.66c1.81,0.35,3.67,0.64,5.48,0.93l2,0.32c2.18,0.35,4.35,0.7,6.53,1.04c1.34,0.21,1.98,1.04,2.28,1.69
	c0.11,0.25,0.26,0.49,0.41,0.73c0.41,0.67,0.87,1.42,0.92,2.37c0.06,1.02-0.42,1.92-0.8,2.64c-0.11,0.2-0.21,0.4-0.3,0.59
	c-1.6,3.53-3.21,7.06-4.83,10.59c-0.43,0.93-0.52,1.63-0.31,2.35c0.34,1.17,1.38,2,2.53,2.03c1.55,0.03,3.11-0.02,4.3-0.06
	c3.12-0.11,6.43-0.23,9.73-0.41c0.49-0.02,1.99-0.11,3.01,1.4c0.13,0.19,0.32,0.4,0.52,0.62c0.47,0.53,1.06,1.18,1.28,2.07
	c0.23,0.95-0.07,1.85-0.3,2.58c-0.07,0.22-0.15,0.44-0.2,0.65c-0.26,1.12-0.51,2.24-0.76,3.37c-0.59,2.63-1.2,5.35-1.92,8
	c-0.31,1.13-0.04,2.32,0.7,3.08c0.73,0.76,1.83,1,3.08,0.71c1.72-0.41,3.44-0.82,5.16-1.22c2.57-0.6,5.14-1.21,7.71-1.84
	c1.41-0.35,2.38,0.1,3.22,0.64c1.95,1.26,2.77,2.98,2.58,5.42c-0.23,2.99-0.32,6.07-0.4,9.04c-0.02,0.88-0.05,1.76-0.08,2.65
	c-0.02,0.63,0.02,1.13,0.13,1.53c0.21,0.77,0.7,1.4,1.38,1.75c0.67,0.36,1.44,0.41,2.18,0.16c0.75-0.26,1.49-0.6,2.27-0.97
	c0.27-0.13,0.54-0.25,0.81-0.37c2.57-1.17,5.14-2.33,7.72-3.51l3.01-1.37c0.43-0.19,0.92-0.18,1.33,0.04l1.53,0.82
	c2.16,1.16,2.45,1.57,2.84,4l0.04,0.24c0.65,4.09,1.31,8.19,2,12.27c0.23,1.36,0.96,2.11,2.35,2.43c0.78,0.18,1.53-0.02,2.42-0.67
	c1.71-1.22,3.42-2.46,5.12-3.69l6.6-4.75c0.37-0.27,0.85-0.35,1.29-0.22l0.84,0.25c0.61,0.18,1.22,0.37,1.83,0.52
	c1.09,0.27,1.82,0.95,2.23,2.08c0.77,2.14,1.57,4.27,2.37,6.4l0.89,2.38c0.13,0.35,0.27,0.7,0.4,1.05c0.32,0.82,0.66,1.68,0.92,2.57
	c0.37,1.26,1.21,2.11,2.29,2.35c1.11,0.24,2.3-0.22,3.17-1.23c1.86-2.15,3.83-4.23,5.74-6.25c1.08-1.14,2.16-2.28,3.22-3.43
	c0.37-0.41,1.51-1.64,3.3-1.03c0.02,0.01,0.07,0.01,0.11,0.01C142.72,288.53,142.89,288.52,143.05,288.52z M169.23,288.6
	C169.23,288.6,169.22,288.6,169.23,288.6C169.22,288.6,169.22,288.6,169.23,288.6z M169.33,288.58L169.33,288.58L169.33,288.58z
	 M197.57,23.4c0,0,0.01,0,0.01,0C197.58,23.41,197.57,23.4,197.57,23.4z M143.05,20.6C143.05,20.61,143.05,20.61,143.05,20.6
	C143.05,20.61,143.05,20.61,143.05,20.6z"/>
<g>
	<path d="M122.49,79.1c2.06,0,4.02,1.21,4.88,3.22c1.15,2.69-0.11,5.8-2.8,6.95c-0.68,0.29-1.38,0.42-2.07,0.42
		c-2.06,0-4.02-1.21-4.88-3.22c-1.15-2.69,0.11-5.8,2.8-6.95C121.09,79.24,121.79,79.1,122.49,79.1 M122.49,77.1L122.49,77.1
		c-0.98,0-1.94,0.2-2.85,0.58c-1.79,0.76-3.18,2.18-3.91,3.99c-0.73,1.81-0.71,3.79,0.05,5.58c1.15,2.7,3.78,4.44,6.72,4.44
		c0.98,0,1.94-0.2,2.85-0.58c1.79-0.76,3.18-2.18,3.91-3.99c0.73-1.81,0.71-3.79-0.05-5.58C128.05,78.85,125.42,77.1,122.49,77.1
		L122.49,77.1z"/>
	<path class="st1" d="M125.78,92.01c-1.46,0.73-3.16,0.98-4.82,0.76c-0.82-0.14-1.63-0.4-2.39-0.76c-0.75-0.38-1.45-0.86-2.09-1.43
		c-1.26-1.16-2.11-2.72-2.5-4.39c-0.37-1.68-0.21-3.46,0.42-5.06c0.34-0.79,0.78-1.54,1.31-2.21c0.55-0.66,1.19-1.25,1.9-1.73
		c1.44-0.93,3.14-1.47,4.84-1.43c0.85,0.03,1.69,0.16,2.5,0.41c0.8,0.27,1.56,0.64,2.25,1.11c1.35,0.98,2.41,2.35,2.95,3.89
		c-1.44-2.93-4.57-4.79-7.68-4.65c-3.11,0.09-6.02,2.11-7.13,4.98c-1.19,2.83-0.5,6.31,1.68,8.53
		C119.16,92.29,122.71,93.13,125.78,92.01z"/>
	<path d="M79.56,159.66c2.73,0,5.04,2.09,5.27,4.86c0.24,2.92-1.92,5.48-4.84,5.72c-0.15,0.01-0.3,0.02-0.45,0.02
		c-2.73,0-5.04-2.09-5.27-4.86c-0.24-2.92,1.92-5.48,4.84-5.72C79.26,159.67,79.41,159.66,79.56,159.66 M79.56,157.66
		c-0.2,0-0.41,0.01-0.61,0.03c-4.01,0.33-7,3.87-6.67,7.88c0.31,3.75,3.5,6.69,7.27,6.69c0.2,0,0.41-0.01,0.61-0.03
		c4.01-0.33,7-3.87,6.67-7.88C86.51,160.6,83.32,157.66,79.56,157.66L79.56,157.66z"/>
	<path class="st1" d="M87.79,164.27c0.24,1.61-0.06,3.31-0.8,4.81c-0.39,0.74-0.89,1.42-1.47,2.03c-0.59,0.6-1.27,1.11-2.01,1.53
		c-1.49,0.83-3.24,1.15-4.95,0.99c-1.71-0.18-3.35-0.89-4.68-1.99c-0.65-0.57-1.22-1.22-1.69-1.94c-0.46-0.73-0.81-1.52-1.05-2.34
		c-0.44-1.66-0.41-3.44,0.16-5.05c0.29-0.8,0.69-1.55,1.18-2.24c0.51-0.67,1.1-1.28,1.76-1.79c1.36-0.98,2.98-1.55,4.61-1.58
		c-3.23,0.44-5.98,2.84-6.82,5.84c-0.89,2.98,0.12,6.38,2.49,8.33c2.32,2.02,5.84,2.45,8.63,1.08
		C85.98,170.64,87.89,167.54,87.79,164.27z"/>
	<path d="M141.37,227.84c0.42,0,0.86,0.05,1.29,0.15c2.94,0.71,4.76,3.67,4.05,6.62c-0.6,2.51-2.85,4.2-5.33,4.2
		c-0.42,0-0.86-0.05-1.29-0.15c-2.94-0.71-4.76-3.67-4.05-6.62C136.65,229.53,138.9,227.84,141.37,227.84 M141.37,225.84
		L141.37,225.84c-3.47,0-6.46,2.36-7.27,5.73c-0.47,1.94-0.15,3.95,0.89,5.66c1.04,1.71,2.69,2.9,4.63,3.37
		c0.58,0.14,1.17,0.21,1.76,0.21c3.47,0,6.46-2.36,7.27-5.73c0.97-4.01-1.51-8.06-5.53-9.03
		C142.55,225.91,141.96,225.84,141.37,225.84L141.37,225.84z"/>
	<path class="st1" d="M143.31,225.52c1.61,0.28,3.12,1.09,4.32,2.27c0.58,0.6,1.07,1.29,1.47,2.03c0.38,0.75,0.65,1.56,0.82,2.39
		c0.32,1.68,0.07,3.44-0.61,5.01c-0.71,1.57-1.9,2.9-3.36,3.82c-0.74,0.44-1.54,0.77-2.37,1c-0.83,0.21-1.7,0.29-2.55,0.26
		c-1.71-0.11-3.39-0.69-4.74-1.74c-0.67-0.53-1.26-1.14-1.76-1.82c-0.48-0.69-0.87-1.44-1.14-2.23c-0.5-1.6-0.53-3.32-0.05-4.88
		c-0.59,3.21,0.82,6.57,3.4,8.31c2.55,1.78,6.1,1.89,8.69,0.25c2.65-1.56,4.16-4.78,3.73-7.86
		C148.8,229.24,146.44,226.46,143.31,225.52z"/>
	<path d="M225.24,187.37c0.95,0,1.92,0.26,2.79,0.8c2.49,1.54,3.25,4.81,1.71,7.29c-1,1.62-2.73,2.5-4.51,2.5
		c-0.95,0-1.92-0.26-2.79-0.8c-2.49-1.54-3.25-4.81-1.71-7.29C221.74,188.26,223.47,187.37,225.24,187.37 M225.24,185.37
		L225.24,185.37c-2.54,0-4.86,1.29-6.2,3.45c-1.03,1.66-1.35,3.61-0.9,5.51c0.44,1.9,1.6,3.51,3.26,4.54
		c1.16,0.72,2.49,1.1,3.84,1.1c2.54,0,4.86-1.29,6.2-3.45c1.03-1.66,1.35-3.61,0.9-5.51s-1.6-3.51-3.26-4.54
		C227.93,185.75,226.6,185.37,225.24,185.37L225.24,185.37z"/>
	<path class="st1" d="M218.1,188.31c0.77-1.44,2.02-2.62,3.51-3.39c0.75-0.36,1.56-0.61,2.39-0.76c0.83-0.13,1.69-0.13,2.53-0.03
		c1.69,0.22,3.29,1.01,4.57,2.15c1.27,1.16,2.16,2.71,2.57,4.39c0.18,0.84,0.25,1.7,0.2,2.56c-0.06,0.86-0.26,1.7-0.55,2.51
		c-0.64,1.59-1.72,3.01-3.14,3.96c-0.71,0.47-1.48,0.84-2.28,1.1c-0.81,0.24-1.64,0.37-2.48,0.38c-1.67-0.03-3.32-0.53-4.65-1.48
		c2.86,1.57,6.5,1.29,8.96-0.62c2.49-1.86,3.71-5.19,2.97-8.17c-0.66-3-3.23-5.45-6.29-6.01
		C223.35,184.27,219.97,185.63,218.1,188.31z"/>
	<path d="M213.53,94.79c1.52,0,3.02,0.65,4.07,1.9c1.88,2.24,1.58,5.58-0.67,7.46c-0.99,0.83-2.2,1.23-3.39,1.23
		c-1.52,0-3.02-0.65-4.07-1.9c-1.88-2.24-1.58-5.58,0.67-7.46C211.12,95.2,212.33,94.79,213.53,94.79 M213.53,92.79L213.53,92.79
		c-1.71,0-3.37,0.6-4.68,1.7c-1.5,1.25-2.41,3.01-2.59,4.95s0.42,3.83,1.67,5.33c1.39,1.66,3.43,2.62,5.6,2.62
		c1.71,0,3.37-0.6,4.68-1.7c3.09-2.58,3.5-7.19,0.92-10.28C217.74,93.75,215.7,92.79,213.53,92.79L213.53,92.79z"/>
	<path class="st1" d="M207.19,105.54c-1.12-1.18-1.86-2.74-2.12-4.39c-0.11-0.83-0.09-1.67,0.03-2.51c0.14-0.83,0.4-1.64,0.77-2.41
		c0.74-1.54,1.99-2.81,3.48-3.66c1.5-0.84,3.25-1.2,4.97-1.06c0.86,0.09,1.7,0.3,2.5,0.61c0.79,0.33,1.54,0.78,2.21,1.31
		c1.31,1.11,2.31,2.58,2.77,4.22c0.22,0.82,0.33,1.67,0.33,2.51c-0.03,0.84-0.17,1.68-0.42,2.47c-0.55,1.58-1.55,2.98-2.87,3.95
		c2.39-2.22,3.26-5.77,2.22-8.7c-0.98-2.95-3.77-5.15-6.83-5.38c-3.06-0.32-6.19,1.35-7.68,4.08
		C205,99.29,205.23,102.93,207.19,105.54z"/>
	<path d="M158.76,229.55c-1.1,0-2.1-0.44-2.77-0.79c-0.01-0.01-0.08-0.04-0.09-0.05c-1-0.55-3.44-4.02-3.9-4.73
		c-1.45-1.92-2.92-3.82-4.38-5.73l-0.13-0.17c-0.9-1.18-1.92-1.84-3.01-1.98c-1.09-0.13-2.29,0.28-3.48,1.19l-1.51,1.15
		c-2.11,1.62-4.29,3.29-6.41,4.96c-1.07,0.85-2.76,1.83-5.07,0.61c-0.53-0.28-1.06-0.55-1.61-0.83c-1.54-0.79-3.14-1.6-4.81-2.69
		c-5.86-3.08-10.49-6.94-14.63-10.66c-8.37-7.53-14.36-15.2-18.29-23.43c-0.15-0.19-0.25-0.42-0.28-0.67
		c-0.24-0.63-0.49-1.25-0.74-1.88c-0.73-1.83-1.48-3.73-2.1-5.67c-0.44-1.4,0.44-3.01,0.97-3.67c1.46-1.82,3-3.62,4.49-5.36
		l1.47-1.72l0.36-0.52c0.25-0.36,0.5-0.72,0.74-1.08c0.63-0.92,1.02-1.77,1.17-2.54c0.05-1.24-0.66-2.47-2.16-3.75
		c-0.8-0.69-1.61-1.37-2.42-2.05l-0.5-0.42c-1.99-1.35-3.96-2.69-5.87-4.08c-0.68-0.5-1.96-1.82-1.9-3.29
		c0.1-2.36,0.35-4.75,0.59-7.05l0.15-1.4c0.01-0.05,0.01-0.11,0.02-0.16c1.92-9.13,6.26-19.67,11.31-27.51
		c4.3-6.67,9.73-12.67,16.14-17.83c0.87-0.7,1.59-1.12,2.89-1.33c1.12-0.18,2.18,0.13,3.15,0.48c1.25,0.46,7.58,2.55,9.95,3.22
		c2.88,0.82,4.84-0.3,5.68-3.24l0.5-1.77c0.73-2.57,1.49-5.23,2.19-7.86c0.35-1.32,1.12-3.12,3.7-3.52c0.75-0.11,1.47-0.26,2.21-0.4
		c1.48-0.29,3.01-0.59,4.81-0.7c6.28-0.99,12.52-0.63,18.32-0.08c12.3,1.14,21.42,3.64,29.51,8.09c0.1,0.03,0.19,0.06,0.28,0.11
		c0.15,0.08,0.28,0.18,0.39,0.3c0.75,0.49,1.53,0.98,2.32,1.47c1.56,0.97,3.17,1.97,4.63,3.08c1.17,0.88,1.38,2.71,1.33,3.55
		c-0.14,2.31-0.35,4.65-0.56,6.91c-0.1,1.11-0.2,2.21-0.29,3.32c-0.31,3.7,1.28,4.7,2.9,5.17c0.61,0.1,1.17,0.13,1.75,0.12
		c1.12-0.04,2.23-0.09,3.35-0.14c2.26-0.1,4.59-0.2,6.9-0.22c0.79-0.02,2.66,0.29,3.48,1.5c1.08,1.58,2.05,3.29,3,4.95
		c0.41,0.72,0.82,1.44,1.24,2.15c0.11,0.12,0.2,0.25,0.27,0.4c0.04,0.08,0.06,0.16,0.08,0.24c4.2,8.71,6.57,18.66,7.06,29.58
		c0.26,5.87,0.32,12.18-1.01,18.53c-0.01,0.03-0.01,0.06-0.02,0.1c-0.24,0.85-0.46,1.71-0.69,2.59c-0.5,1.9-1.01,3.87-1.65,5.72
		c-0.48,1.38-2.15,2.15-2.96,2.36c-2.24,0.58-4.53,1.1-6.74,1.6c-1.09,0.25-2.17,0.49-3.25,0.75c-3.47,0.81-4,2.5-4.01,4.07
		c0.06,0.53,0.17,0.98,0.32,1.42l0.62,1.75c0.89,2.52,1.81,5.12,2.75,7.66c0.66,1.76,0.3,4.76-1.25,6.32
		c-8.01,9.18-18.37,16.2-30.79,20.85c-7.43,2.78-15.37,4.35-23.59,4.66C158.86,229.55,158.81,229.55,158.76,229.55z M157.42,226.12
		c0.59,0.29,1.06,0.44,1.37,0.42c7.9-0.3,15.52-1.8,22.65-4.47c11.97-4.48,21.93-11.23,29.61-20.05c0.03-0.03,0.06-0.06,0.08-0.09
		c0.64-0.62,0.88-2.37,0.58-3.17c-0.96-2.56-1.88-5.18-2.77-7.71l-0.62-1.75c-0.24-0.68-0.4-1.37-0.48-2.17
		c-0.01-0.06-0.01-0.11-0.01-0.17c0-2.55,1.1-5.85,6.33-7.08c1.09-0.26,2.18-0.5,3.28-0.75c2.19-0.5,4.45-1.01,6.64-1.58
		c0.39-0.1,0.83-0.39,0.93-0.53c0.56-1.65,1.06-3.57,1.55-5.41c0.23-0.87,0.46-1.74,0.69-2.59c1.25-6,1.19-12.07,0.94-17.73
		c-0.47-10.59-2.78-20.22-6.85-28.6c-0.47-0.79-0.94-1.61-1.4-2.42c-0.9-1.58-1.84-3.22-2.83-4.69c-0.16-0.11-0.67-0.27-1.01-0.25
		c-2.26,0.02-4.57,0.12-6.81,0.22c-1.12,0.05-2.25,0.1-3.38,0.14c-0.81,0.03-1.61-0.03-2.44-0.17c-0.05-0.01-0.1-0.02-0.14-0.03
		c-2.61-0.73-5.62-2.76-5.15-8.33c0.09-1.12,0.2-2.23,0.3-3.34c0.21-2.23,0.42-4.55,0.55-6.81c0.02-0.4-0.12-0.91-0.22-1.04
		c-1.28-0.95-2.83-1.92-4.34-2.86c-0.9-0.56-1.79-1.12-2.65-1.68c-7.76-4.31-16.57-6.74-28.55-7.85
		c-5.63-0.52-11.67-0.88-17.65,0.07c-0.05,0.01-0.1,0.01-0.15,0.02c-1.63,0.09-3.08,0.38-4.48,0.65c-0.78,0.15-1.54,0.3-2.33,0.42
		c-0.73,0.11-0.98,0.3-1.25,1.32c-0.71,2.65-1.47,5.32-2.21,7.91l-0.5,1.77c-1.29,4.55-4.89,6.59-9.38,5.31
		c-2.42-0.69-8.88-2.82-10.16-3.29c-0.83-0.3-1.3-0.4-1.66-0.34c-0.67,0.11-0.9,0.24-1.48,0.7c-6.16,4.96-11.37,10.71-15.5,17.11
		c-4.85,7.53-9.02,17.65-10.88,26.42l-0.14,1.33c-0.24,2.26-0.48,4.6-0.58,6.87c0.03,0.07,0.34,0.5,0.67,0.73
		c1.89,1.38,3.86,2.72,5.77,4.01c0.04,0.03,0.16,0.11,0.2,0.15l0.56,0.47c0.82,0.69,1.63,1.37,2.44,2.06
		c2.27,1.94,3.35,4.06,3.2,6.31c0,0.05-0.01,0.11-0.02,0.16c-0.21,1.21-0.77,2.48-1.66,3.79c-0.25,0.37-0.5,0.73-0.76,1.1l-0.4,0.58
		c-0.03,0.04-0.06,0.08-0.09,0.12l-1.52,1.78c-1.47,1.72-2.99,3.5-4.43,5.28c-0.25,0.31-0.43,0.81-0.43,0.98
		c0.57,1.75,1.27,3.51,2.01,5.38c0.29,0.73,0.58,1.46,0.86,2.19c3.76,7.93,9.54,15.34,17.67,22.66c4,3.6,8.48,7.34,14.08,10.27
		c0.04,0.02,0.09,0.05,0.13,0.08c1.55,1.02,3.09,1.8,4.58,2.56c0.56,0.28,1.11,0.56,1.65,0.85c0.65,0.35,0.97,0.35,1.8-0.31
		c2.13-1.69,4.33-3.37,6.45-5l1.5-1.15c1.83-1.4,3.79-2.02,5.68-1.79c1.89,0.24,3.63,1.32,5.02,3.13l0.13,0.17
		c1.48,1.93,2.96,3.86,4.42,5.79c0.03,0.04,0.06,0.09,0.09,0.14C154.98,223.13,156.87,225.61,157.42,226.12z M228.71,169.39
		L228.71,169.39L228.71,169.39z"/>
</g>
<g>
	<path class="st2" d="M61.5,134.59l-11.33,5.34c-0.1,0.68-0.27,1.62-0.5,2.83l10.54,1.41l-0.62,4.65l-25.24-3.38
		c0.03-0.25,0.12-1.23,0.26-2.93c0.14-1.7,0.28-3.07,0.42-4.1c0.86-6.41,3.77-9.28,8.73-8.62c1.49,0.2,2.8,0.83,3.91,1.87
		c1.11,1.05,1.83,2.28,2.15,3.69l12.37-5.94L61.5,134.59z M38.87,141.3l7.01,0.94c0.18-0.82,0.3-1.44,0.36-1.88
		c0.25-1.87,0.17-3.28-0.24-4.22c-0.41-0.94-1.38-1.51-2.91-1.71c-1.24-0.17-2.17,0.18-2.79,1.05s-1.06,2.29-1.33,4.29
		C38.91,140.26,38.88,140.77,38.87,141.3z"/>
	<path class="st2" d="M39.98,115.67l1.73-4.18l15.96,6.59c1.26,0.52,2.45,0.56,3.56,0.12c1.11-0.44,1.95-1.34,2.5-2.69
		c0.62-1.51,0.72-2.85,0.29-4.01c-0.43-1.16-1.32-2.02-2.67-2.58l-15.87-6.55l1.73-4.18l16.2,6.69c2.42,1,3.98,2.59,4.68,4.78
		c0.7,2.19,0.49,4.64-0.63,7.35c-1.13,2.73-2.67,4.56-4.62,5.49c-1.95,0.93-4.18,0.88-6.67-0.15L39.98,115.67z"/>
	<path class="st2" d="M72.78,101.86l-2.28-3.74c2.06-0.7,3.61-1.75,4.63-3.14c1.57-2.14,1.6-3.76,0.11-4.86
		c-0.7-0.51-1.55-0.75-2.56-0.71c-1.01,0.04-2.48,0.56-4.42,1.55c-1.94,1-3.37,1.58-4.28,1.76c-0.91,0.17-1.82,0.15-2.74-0.07
		c-0.92-0.22-1.8-0.64-2.65-1.26c-1.59-1.16-2.48-2.71-2.68-4.64c-0.19-1.93,0.38-3.81,1.71-5.63c1.74-2.37,3.46-3.79,5.16-4.25
		l2.33,3.41c-1.85,0.61-3.3,1.62-4.34,3.05c-0.62,0.84-0.87,1.66-0.77,2.44c0.1,0.79,0.51,1.44,1.22,1.96
		c1.18,0.86,3.36,0.46,6.54-1.22c1.68-0.88,3.03-1.42,4.04-1.61s2.01-0.17,2.99,0.06s1.94,0.69,2.87,1.37
		c1.66,1.22,2.55,2.88,2.67,4.98c0.11,2.1-0.64,4.25-2.25,6.46C76.67,99.67,74.9,101.04,72.78,101.86z"/>
	<path class="st2" d="M81.04,62.61l14.01,16.24l-3.42,2.95L77.62,65.56l-6.13,5.29l-2.62-3.04l15.97-13.77l2.62,3.04L81.04,62.61z"
		/>
	<path d="M124.57,62.25l-7.36,2.56l-8.35-24.04c3.19-1.28,5.43-2.14,6.73-2.6c2.5-0.87,4.63-1.01,6.41-0.43
		c1.78,0.58,3.01,1.86,3.7,3.84c0.66,1.91,0.18,3.76-1.45,5.57c3.35,0,5.59,1.63,6.72,4.88c0.76,2.19,0.54,4.21-0.67,6.07
		S127.18,61.34,124.57,62.25z M114.32,42.69l2,5.76c0.67-0.18,1.37-0.4,2.09-0.65c2.78-0.97,3.81-2.49,3.08-4.59
		c-0.64-1.85-2.23-2.34-4.76-1.46C116.07,41.99,115.26,42.31,114.32,42.69z M117.48,51.79l2.76,7.95c0.89-0.22,1.6-0.43,2.14-0.62
		c1.9-0.66,3.17-1.46,3.81-2.41c0.63-0.94,0.69-2.17,0.17-3.67c-0.48-1.37-1.22-2.23-2.24-2.57c-1.02-0.35-2.52-0.17-4.51,0.52
		C119.2,51.14,118.48,51.41,117.48,51.79z"/>
	<path d="M141.9,36.24l0.59,5.93l8.37-0.83l0.38,3.82l-8.37,0.83l0.76,7.59l11.49-1.14l0.4,4l-15.98,1.59L137,32.69l16.17-1.61
		l0.4,4L141.9,36.24z"/>
	<path d="M161.9,56.68l3.26-25.26l4.48,0.58l-2.75,21.27l11.41,1.47l-0.51,3.98L161.9,56.68z"/>
	<path d="M197.91,42.77l-7.14,20.23l-4.26-1.5l7.14-20.23l-7.64-2.7l1.34-3.79l19.88,7.01l-1.34,3.79L197.91,42.77z"/>
	<path class="st2" d="M224.75,84.68l1.88-12.38c-0.5-0.46-1.19-1.13-2.07-1.99l-7.05,7.96L214,75.16l16.88-19.07
		c0.19,0.17,0.95,0.79,2.29,1.85s2.39,1.94,3.17,2.63c4.84,4.29,5.6,8.3,2.28,12.05c-1,1.13-2.24,1.86-3.73,2.2
		c-1.49,0.34-2.91,0.25-4.27-0.27l-1.97,13.58L224.75,84.68z M231.79,62.15l-4.69,5.3c0.58,0.61,1.03,1.05,1.36,1.35
		c1.41,1.25,2.63,1.97,3.63,2.15c1.01,0.18,2.02-0.31,3.04-1.46c0.83-0.94,1.06-1.9,0.69-2.9c-0.37-1-1.31-2.16-2.82-3.5
		C232.64,62.76,232.24,62.45,231.79,62.15z"/>
	<path class="st2" d="M252.48,77.15l2.54,3.74l-14.29,9.69c-1.13,0.77-1.82,1.74-2.06,2.91c-0.24,1.17,0.05,2.36,0.87,3.57
		c0.92,1.35,1.98,2.17,3.19,2.45c1.21,0.28,2.41,0.01,3.62-0.81l14.21-9.64l2.54,3.74l-14.5,9.84c-2.17,1.47-4.36,1.9-6.57,1.28
		c-2.21-0.62-4.14-2.14-5.79-4.57c-1.66-2.45-2.34-4.74-2.04-6.88c0.3-2.14,1.56-3.97,3.8-5.49L252.48,77.15z"/>
	<path class="st2" d="M245.96,112.16l4.38,0.16c-0.55,2.11-0.53,3.97,0.07,5.59c0.92,2.49,2.25,3.41,3.99,2.77
		c0.81-0.3,1.48-0.88,2-1.74c0.52-0.86,0.9-2.38,1.14-4.55c0.24-2.17,0.54-3.68,0.89-4.54c0.36-0.85,0.88-1.6,1.57-2.25
		s1.53-1.15,2.52-1.52c1.85-0.68,3.63-0.58,5.35,0.33c1.72,0.9,2.97,2.41,3.75,4.53c1.02,2.76,1.26,4.98,0.7,6.65l-4.13,0.06
		c0.51-1.88,0.46-3.65-0.15-5.3c-0.36-0.98-0.9-1.64-1.62-1.99c-0.72-0.35-1.49-0.37-2.31-0.06c-1.37,0.51-2.23,2.55-2.59,6.13
		c-0.19,1.89-0.48,3.31-0.88,4.26c-0.4,0.95-0.96,1.77-1.7,2.46c-0.74,0.69-1.65,1.24-2.72,1.64c-1.93,0.72-3.81,0.54-5.62-0.52
		s-3.2-2.88-4.15-5.44C245.64,116.6,245.47,114.37,245.96,112.16z"/>
	<path class="st2" d="M274.12,140.7l-21.28,2.7l-0.57-4.48l21.28-2.7l-1.02-8.04l3.98-0.51l2.66,20.92l-3.98,0.51L274.12,140.7z"/>
</g>
<g>
	<path d="M262.28,212.94l-2.6-3.26c1.34-0.49,2.48-1.75,3.42-3.77c0.89-1.92,0.82-3.87-0.22-5.85c-1.04-1.98-2.8-3.54-5.26-4.69
		c-2.47-1.15-4.69-1.49-6.67-1.03c-1.98,0.46-3.41,1.65-4.3,3.55c-1.01,2.17-1.03,4.24-0.04,6.19l-4.2,0.37
		c-1-2.5-0.75-5.36,0.76-8.58c1.5-3.23,3.73-5.24,6.68-6.04s6.26-0.34,9.93,1.36c3.42,1.59,5.81,3.91,7.18,6.96
		c1.37,3.05,1.34,6.12-0.1,9.21C265.63,210,264.1,211.86,262.28,212.94z"/>
	<path d="M247.79,215.58c2.78,2.34,4.49,5.07,5.13,8.21c0.64,3.14-0.11,5.98-2.25,8.52c-2.36,2.8-5.03,4.21-8.01,4.23
		c-2.99,0.02-6.05-1.29-9.19-3.93c-3.14-2.64-4.98-5.51-5.53-8.61c-0.54-3.1,0.38-6.07,2.78-8.92c2.2-2.62,4.8-3.86,7.8-3.72
		C241.53,211.51,244.61,212.91,247.79,215.58z M244.77,219.18c-2.28-1.92-4.37-3.02-6.27-3.3c-1.9-0.28-3.47,0.32-4.71,1.79
		c-1.45,1.73-1.95,3.56-1.49,5.5c0.46,1.94,1.86,3.89,4.19,5.85c4.57,3.84,8.27,4.08,11.1,0.71c1.3-1.54,1.67-3.25,1.13-5.11
		C248.18,222.75,246.86,220.94,244.77,219.18z"/>
	<path d="M204.98,237.26l19.31,6.29l-8.93-13.02l3.58-2.46l14.42,21.01l-1.79,1.23l-18.61-5.86l8.7,12.67l-3.58,2.46l-14.61-21.29
		L204.98,237.26z"/>
	<path d="M200.21,263.48l-2.05-5.6l-8.41,3.07l-1.32-3.61l8.41-3.07l-4-10.94l4.25-1.55l8.74,23.92l-15.75,5.76l-1.38-3.77
		L200.21,263.48z"/>
	<path d="M173.25,270.62l-0.69-5.92l-8.36,0.97l-0.44-3.82l8.36-0.97l-0.88-7.58l-11.47,1.33l-0.46-3.99l15.96-1.85l2.93,25.3
		l-16.15,1.87l-0.46-3.99L173.25,270.62z"/>
	<path d="M138.72,248.82l5.46,11.27c0.68,0.09,1.62,0.25,2.83,0.47l1.3-10.56l4.66,0.57l-3.12,25.28c-0.25-0.03-1.23-0.11-2.93-0.23
		c-1.7-0.12-3.07-0.25-4.1-0.38c-6.42-0.79-9.32-3.67-8.71-8.64c0.18-1.5,0.8-2.8,1.83-3.92c1.04-1.12,2.26-1.85,3.67-2.19
		l-6.06-12.31L138.72,248.82z M145.68,271.38l0.87-7.02c-0.82-0.17-1.45-0.28-1.88-0.34c-1.88-0.23-3.28-0.14-4.21,0.29
		c-0.93,0.42-1.49,1.4-1.68,2.93c-0.15,1.24,0.21,2.17,1.08,2.78c0.87,0.61,2.31,1.04,4.31,1.28
		C144.63,271.35,145.14,271.38,145.68,271.38z"/>
	<path d="M117.68,265.2l2.1-5.58l-7.87-2.96l1.35-3.6l7.87,2.96l2.69-7.14l-10.8-4.06l1.41-3.76l15.03,5.66l-8.97,23.83l-15.21-5.73
		l1.41-3.76L117.68,265.2z"/>
	<path d="M95.32,228.37l0.92,20.29l9.03-12.94l3.56,2.49l-14.58,20.9l-1.78-1.24l-1.07-19.49l-8.79,12.6l-3.56-2.49l14.77-21.17
		L95.32,228.37z"/>
	<path d="M58.66,224.96l4.05-1.01c-0.11,1.42,0.55,2.98,2,4.69c1.37,1.62,3.18,2.36,5.41,2.24c2.23-0.12,4.39-1.06,6.46-2.83
		c2.07-1.77,3.31-3.64,3.72-5.64s-0.08-3.79-1.43-5.39c-1.56-1.83-3.42-2.7-5.61-2.62l1.42-3.97c2.69,0.13,5.18,1.56,7.49,4.27
		c2.31,2.71,3.21,5.57,2.7,8.59c-0.51,3.02-2.3,5.84-5.38,8.46c-2.87,2.44-5.97,3.65-9.32,3.63c-3.34-0.02-6.12-1.33-8.33-3.93
		C59.95,229.23,58.89,227.07,58.66,224.96z"/>
	<path d="M52.41,209.48l5.32-2.69l-3.8-7.51l3.43-1.73l3.8,7.51l6.81-3.45l-5.21-10.3l3.58-1.81l7.25,14.33l-22.72,11.5l-7.34-14.5
		l3.58-1.81L52.41,209.48z"/>
</g>
<path class="st2" d="M121.43,164.01c0.65-0.15,1.34-0.36,2.04-0.45c0.97-0.13,1.59-0.61,2.03-1.5c0.56-1.13,1.05-2.32,2.08-3.18
	c0.94-0.78,1.08-2.06,0.39-3.32c-0.35-0.64-0.26-1.04,0.09-1.64c0.54-0.92,0.89-1.95,1.33-2.93c0.13-0.29,0.3-0.55,0.45-0.83
	c0.09,0.02,0.19,0.05,0.28,0.07c0,0.4,0.07,0.81-0.01,1.2c-0.29,1.42,1.4,2.25,2.48,1.71c0.44-0.22,0.89-0.43,1.32-0.67
	c1.63-0.92,2.15-2.26,1.7-4.06c-0.12-0.51-0.02-1.1,0.1-1.63c0.18-0.81,0.49-1.6,0.7-2.41c0.09-0.36,0.22-0.52,0.63-0.55
	c1.19-0.08,2.04-0.6,2.37-1.85c0.2-0.75,1.24-1.06,1.9-0.59c0.7,0.5,1.33,0.49,2.04-0.01c0.47-0.33,1-0.65,1.55-0.81
	c0.88-0.25,1.35-0.93,1.96-1.49c1.23-1.13,2.5-2.22,3.8-3.27c0.76-0.61,1.29-1.31,1.37-2.27c0.08-0.9,0.16-1.84,0.01-2.72
	c-0.18-1.07,0.28-1.88,0.69-2.77c0.77-1.67,1.82-3.23,1.88-5.2c0.03-0.98,0.55-1.94,1.02-2.89c0.02,0.2,0.05,0.41,0.05,0.61
	c0.03,3.78,0.05,7.55,0.07,11.33c0.01,1.03,0.24,1.3,1.27,1.44c3.73,0.53,7.48,0.44,11.23,0.31c1.43-0.05,2.86-0.07,4.29-0.03
	c1.26,0.04,1.66,0.45,1.79,1.7c0.04,0.41,0.01,0.84,0.02,1.25c0.02,1.7,0.05,3.4,0.07,5.11c0.01,1.19,0.89,1.62,1.77,2.04
	c0.68,0.33,1.27,0.04,1.78-0.38c1.57-1.3,3.12-2.64,4.7-3.93c0.17-0.14,0.53-0.21,0.73-0.14c1.1,0.4,1.79,0.25,2.59-0.59
	c0.73-0.77,1.47-1.52,2.25-2.31c1.05,1.13,2.4,1.17,3.71,1.27c1.38,0.11,2.36-0.56,3-1.76c0.55-1.03,0.58-1.04,1.7-0.66
	c0.81,0.28,1.47,0,1.71-0.78c0.2-0.65,0.62-0.64,1.09-0.44c0.31,0.13,0.62,0.34,0.84,0.59c0.7,0.78,1.55,1.11,2.58,1.02
	c0.12-0.01,0.24,0.03,0.46,0.05c-0.11,1.04,0.49,1.71,1.11,2.45c1.29,1.52,1.25,4-0.05,5.66c-1.1-0.86-2.2-1.71-3.3-2.57
	c-1.01-0.79-2-1.6-3.03-2.37c-1.5-1.11-2.91-0.61-3.49,1.18c-0.17,0.51-0.44,0.99-0.61,1.51c-0.2,0.63-0.55,1.3-0.47,1.91
	c0.16,1.31-0.24,2.22-1.35,2.89c-0.26,0.16-0.51,0.42-0.66,0.69c-1,1.77-2.62,2.85-4.26,3.91c-0.29,0.19-0.58,0.38-0.83,0.62
	c-0.49,0.46-0.91,0.81-1.69,0.47c-0.65-0.29-1.4,0.01-1.77,0.6c-0.51,0.82-0.85,1.75-1.26,2.63c-0.17,0.36-0.28,0.79-0.54,1.06
	c-0.6,0.61-1.1,1.22-1.31,2.09c-0.16,0.66-0.55,1.26-0.84,1.88c-0.29,0.63-0.76,0.94-1.47,0.79c-0.72-0.16-1.43-0.24-1.76-1.11
	c-0.36-0.96-1.1-1.63-2.05-2.03c-0.88-0.36-1.77-0.1-2.33,0.75c-0.33,0.51-0.63,1.11-0.69,1.69c-0.2,1.86-1.12,3.41-2.09,4.91
	c-1.23,1.89-2.51,3.72-3.21,5.89c-0.05,0.16-0.15,0.32-0.27,0.43c-2.07,2.04-3.49,4.51-4.72,7.1c-0.27,0.57-0.15,1.33-0.2,2
	c-0.01,0.16,0.08,0.35,0.02,0.49c-0.32,0.76-0.68,1.51-1,2.27c-0.42,0.99-0.67,1.11-1.66,0.77c-1.02-0.35-1.92-0.26-2.68,0.62
	c-0.35,0.4-1.84,0.51-2.31,0.24c-1.28-0.74-2.83-0.03-2.99,1.46c-0.09,0.8-0.34,1.03-1.17,1.07c-0.93,0.05-1.88,0.36-2.75,0.72
	c-0.89,0.37-1.68,0.58-2.58,0.01c-1-0.63-1.99-0.64-3.03,0.1c-0.68,0.49-1.51,0.85-2.33,1.05c-0.51,0.12-1.2-0.03-1.66-0.3
	c-1.04-0.6-2.01-1.33-2.97-2.06c-0.27-0.2-0.45-0.57-0.57-0.9c-0.29-0.8-0.34-1.75-0.82-2.41c-0.6-0.85-1.42-1.68-2.34-2.13
	c-1.02-0.51-1.93-1.14-2.61-1.95c-0.89-1.06-1.49-2.36-2.22-3.55c-0.47-0.77-0.97-1.52-1.44-2.29c-0.15-0.24-0.24-0.51-0.36-0.76
	c-0.29-0.6-0.53-1.24-0.9-1.8c-0.48-0.73-1.11-1.37-1.59-2.11c-0.14-0.21-0.09-0.75,0.08-0.91c1.16-1.11,1.45-2.42,1.1-3.93
	C121.38,164.34,121.41,164.26,121.43,164.01z"/>
</svg>
